1,2,3,4,5,6,7
0.950272214930256,0.0289878649595468,0,0,0,0,0.0207399201108662
2.68555543266498E-165,0.960319665295623,0.036322060579352,0,0,0,0.00335827412716365
0,0,0.949077627472846,0.0509223725270006,0,0,0
0,0,0.00119931541633934,0.96525991859214,0.0335407659849431,0,0
0,0,0,0,0.94699045722707,0.0530095427788024,0
0.0331679270583562,0,0,0,0,0.96683207293554,0
0,0.00897449289237535,0.00268257372654669,0.0241696702479572,0,0,0.964173263133696
